SAVE/SC3/waveforms.vcd
$date
     Mar 15, 2025       18:12:20
$end

$version
 SystemC 3.0.1-Accellera --- Feb  7 2025 13:43:31
$end

$timescale
     1 ps
$end

$scope module SystemC $end
$var wire    1  aaaaa  clk       $end
$var wire    4  aaaab  A [3:0]  $end
$var wire    4  aaaac  B [3:0]  $end
$var wire    4  aaaad  OUT [3:0]  $end
$upscope $end
$enddefinitions  $end

$comment
All initial values are dumped below at time 0 sec = 0 timescale units.
$end

$dumpvars
1aaaaa
b0 aaaab
b0 aaaac
b0 aaaad
$end

#2500
0aaaaa

#5000
1aaaaa
b1 aaaab
b10 aaaac

#7000
b11 aaaad

#7500
0aaaaa

#10000
1aaaaa
b10 aaaab
b100 aaaac

#12000
b110 aaaad

#12500
0aaaaa

#15000
1aaaaa
b11 aaaab
b110 aaaac

#17000
b1001 aaaad

#17500
0aaaaa

#20000
1aaaaa
b100 aaaab
b1000 aaaac

#22000
b1100 aaaad

#22500
0aaaaa

#25000
1aaaaa
b101 aaaab
b1010 aaaac

#27000
b1111 aaaad

#27500
0aaaaa

#30000
1aaaaa
b110 aaaab
b1100 aaaac

#32000
b10 aaaad

#32500
0aaaaa

#35000
1aaaaa
b111 aaaab
b1110 aaaac

#37000
b101 aaaad

